\relax 
\providecommand\hyper@newdestlabel[2]{}
\providecommand\HyperFirstAtBeginDocument{\AtBeginDocument}
\HyperFirstAtBeginDocument{\ifx\hyper@anchor\@undefined
\global\let\oldcontentsline\contentsline
\gdef\contentsline#1#2#3#4{\oldcontentsline{#1}{#2}{#3}}
\global\let\oldnewlabel\newlabel
\gdef\newlabel#1#2{\newlabelxx{#1}#2}
\gdef\newlabelxx#1#2#3#4#5#6{\oldnewlabel{#1}{{#2}{#3}}}
\AtEndDocument{\ifx\hyper@anchor\@undefined
\let\contentsline\oldcontentsline
\let\newlabel\oldnewlabel
\fi}
\fi}
\global\let\hyper@last\relax 
\gdef\HyperFirstAtBeginDocument#1{#1}
\providecommand\HyField@AuxAddToFields[1]{}
\providecommand\HyField@AuxAddToCoFields[2]{}
\@writefile{lof}{\contentsline {figure}{\numberline {1}{\ignorespaces A frame from video3.avi.\relax }}{1}{figure.caption.1}}
\providecommand*\caption@xref[2]{\@setref\relax\@undefined{#1}}
\newlabel{fig:ori}{{1}{1}{A frame from video3.avi.\relax }{figure.caption.1}{}}
\@writefile{lof}{\contentsline {figure}{\numberline {2}{\ignorespaces Result of CS6640\_background\_heq with one of video as input.\relax }}{3}{figure.caption.2}}
\newlabel{fig:ori}{{2}{3}{Result of CS6640\_background\_heq with one of video as input.\relax }{figure.caption.2}{}}
\@writefile{lof}{\contentsline {figure}{\numberline {3}{\ignorespaces Result of CS6640\_background\_hue with one of video as input.\relax }}{3}{figure.caption.3}}
\newlabel{fig:ori}{{3}{3}{Result of CS6640\_background\_hue with one of video as input.\relax }{figure.caption.3}{}}
\@writefile{lof}{\contentsline {figure}{\numberline {4}{\ignorespaces A frame from video3.avi. Gray level method. The car is block by thin tree. Use imdilate can handle this easily.\relax }}{4}{figure.caption.4}}
\newlabel{fig:ori}{{4}{4}{A frame from video3.avi. Gray level method. The car is block by thin tree. Use imdilate can handle this easily.\relax }{figure.caption.4}{}}
\@writefile{lof}{\contentsline {figure}{\numberline {5}{\ignorespaces A background substraction result from a frame in video1.avi. Histogram equalization method.\relax }}{4}{figure.caption.5}}
\newlabel{fig:ori}{{5}{4}{A background substraction result from a frame in video1.avi. Histogram equalization method.\relax }{figure.caption.5}{}}
\@writefile{lof}{\contentsline {figure}{\numberline {6}{\ignorespaces Draw bounding box using rectangle().\relax }}{5}{figure.caption.6}}
\newlabel{fig:ori}{{6}{5}{Draw bounding box using rectangle().\relax }{figure.caption.6}{}}
\bibstyle{acm}
\bibdata{biblio}
\@writefile{lof}{\contentsline {figure}{\numberline {7}{\ignorespaces I made a add\_numbers function to show the changing of numbers. (yellow means number of pixels.)\relax }}{6}{figure.caption.7}}
\newlabel{fig:ori}{{7}{6}{I made a add\_numbers function to show the changing of numbers. (yellow means number of pixels.)\relax }{figure.caption.7}{}}
