\relax 
\providecommand\hyper@newdestlabel[2]{}
\providecommand\HyperFirstAtBeginDocument{\AtBeginDocument}
\HyperFirstAtBeginDocument{\ifx\hyper@anchor\@undefined
\global\let\oldcontentsline\contentsline
\gdef\contentsline#1#2#3#4{\oldcontentsline{#1}{#2}{#3}}
\global\let\oldnewlabel\newlabel
\gdef\newlabel#1#2{\newlabelxx{#1}#2}
\gdef\newlabelxx#1#2#3#4#5#6{\oldnewlabel{#1}{{#2}{#3}}}
\AtEndDocument{\ifx\hyper@anchor\@undefined
\let\contentsline\oldcontentsline
\let\newlabel\oldnewlabel
\fi}
\fi}
\global\let\hyper@last\relax 
\gdef\HyperFirstAtBeginDocument#1{#1}
\providecommand\HyField@AuxAddToFields[1]{}
\providecommand\HyField@AuxAddToCoFields[2]{}
\@writefile{lof}{\contentsline {figure}{\numberline {1}{\ignorespaces The background difference of frame 50 in `video.avi' with manually determinded ground true.\relax }}{1}{figure.caption.1}}
\providecommand*\caption@xref[2]{\@setref\relax\@undefined{#1}}
\newlabel{fig:ori}{{1}{1}{The background difference of frame 50 in `video.avi' with manually determinded ground true.\relax }{figure.caption.1}{}}
\@writefile{lof}{\contentsline {figure}{\numberline {2}{\ignorespaces The blob that cover entire car.\relax }}{2}{figure.caption.2}}
\newlabel{fig:ori}{{2}{2}{The blob that cover entire car.\relax }{figure.caption.2}{}}
\@writefile{lof}{\contentsline {figure}{\numberline {3}{\ignorespaces The result boundary in blue and ground true in red. Not bad.\relax }}{2}{figure.caption.3}}
\newlabel{fig:ori}{{3}{2}{The result boundary in blue and ground true in red. Not bad.\relax }{figure.caption.3}{}}
\@writefile{lof}{\contentsline {figure}{\numberline {4}{\ignorespaces The result boundary in blue and ground true in red. Not bad.\relax }}{3}{figure.caption.4}}
\newlabel{fig:ori}{{4}{3}{The result boundary in blue and ground true in red. Not bad.\relax }{figure.caption.4}{}}
\@writefile{lof}{\contentsline {figure}{\numberline {5}{\ignorespaces The result boundary in blue and ground true in red. The left part lost most of the point, otherwise is good.\relax }}{4}{figure.caption.5}}
\newlabel{fig:ori}{{5}{4}{The result boundary in blue and ground true in red. The left part lost most of the point, otherwise is good.\relax }{figure.caption.5}{}}
\bibstyle{acm}
\bibdata{biblio}
