\relax 
\citation{Ferber}
\citation{Maes}
\citation{Subrahmanian}
\citation{Weiss}
\citation{Wooldridge00}
\@writefile{toc}{\contentsline {section}{\numberline {I}INTRODUCTION}{1}}
\@writefile{lof}{\contentsline {figure}{\numberline {1}{\ignorespaces The Robot Google Framework.}}{1}}
\newlabel{Figure:image1}{{1}{1}}
\citation{Knoop2007}
\citation{Sowa00}
\citation{Roy05b}
\citation{Roy05a}
\citation{Cohen2000}
\citation{Kuipers2001}
\citation{Grupen2005}
\citation{Hart2005}
\citation{Dillmann}
\citation{Dillmann2005}
\citation{Genesereth}
\citation{Davies03}
\@writefile{toc}{\contentsline {section}{\numberline {II}RELEVANT WORK}{2}}
\@writefile{toc}{\contentsline {section}{\numberline {III}ROBOT KNOWLEDGE}{2}}
\citation{Castelli2002}
\citation{sclaroff99}
\citation{deerwester90}
\citation{Henderson98b}
\citation{Henderson84a}
\citation{Fielden2002}
\@writefile{toc}{\contentsline {subsection}{\numberline {III-A}The First Transformation}{3}}
\@writefile{lot}{\contentsline {table}{\numberline {I}{\ignorespaces An Object Example Contains Images, Text Descriptions, Dimensional Data and Weight Measure}}{3}}
\newlabel{Table:obj_exp}{{I}{3}}
\@writefile{toc}{\contentsline {subsection}{\numberline {III-B}The Second Transformation}{3}}
\citation{Castelli2002}
\@writefile{toc}{\contentsline {section}{\numberline {IV}KNOWLEDGE SEARCH ENGINE}{4}}
\@writefile{lof}{\contentsline {figure}{\numberline {2}{\ignorespaces The Robot Google Architecture.}}{4}}
\newlabel{Figure:RG_architecture}{{2}{4}}
\@writefile{toc}{\contentsline {subsection}{\numberline {IV-A}Query Processor}{4}}
\@writefile{toc}{\contentsline {subsection}{\numberline {IV-B}Indexing Structures}{4}}
\@writefile{toc}{\contentsline {subsection}{\numberline {IV-C}Cross Analyzer}{4}}
\citation{Castelli2002}
\citation{puzicha99}
\citation{wiki:precision}
\@writefile{toc}{\contentsline {subsection}{\numberline {IV-D}Response Formalizer}{5}}
\@writefile{toc}{\contentsline {section}{\numberline {V}EXPERIMENT}{5}}
\@writefile{toc}{\contentsline {subsection}{\numberline {V-A}Object Knowledge}{5}}
\citation{Knoop2007}
\citation{Knoop2006}
\@writefile{lof}{\contentsline {figure}{\numberline {3}{\ignorespaces Performance Test Group 1. All items returned from Robot Google are taken into consideration. Items derived from the same instance are relevant. Tests range from complete query \& complete database to incomplete query \& incomplete database.}}{6}}
\newlabel{Figure:test1}{{3}{6}}
\@writefile{lof}{\contentsline {figure}{\numberline {4}{\ignorespaces Performance Test Group 2. Top 30 items returned from Robot Google are taken into consideration. Items derived from the same instance are relevant. Tests range from complete query \& complete database to incomplete query \& incomplete database.}}{6}}
\newlabel{Figure:test2}{{4}{6}}
\@writefile{lof}{\contentsline {figure}{\numberline {5}{\ignorespaces Performance Test Group 3. Top 30 items returned from Robot Google are taken into consideration. Optimal weight coefficients are applied for ranking. Items derived from the same instance are relevant. Tests range from complete query \& complete database to incomplete query \& incomplete database.}}{6}}
\newlabel{Figure:test3}{{5}{6}}
\@writefile{lof}{\contentsline {figure}{\numberline {6}{\ignorespaces Performance Test Group 4. All items returned from Robot Google are taken into consideration. Items belong to the same object class are relevant. Tests range from complete query \& complete database to incomplete query \& incomplete database.}}{6}}
\newlabel{Figure:test4}{{6}{6}}
\citation{Knoop2007}
\citation{Knoop2006}
\citation{Knoop2007}
\@writefile{lof}{\contentsline {figure}{\numberline {7}{\ignorespaces Performance Test Group 5. Top 30 items returned from Robot Google are taken into consideration. Items belong to the same object class are relevant. Tests range from complete query \& complete database to incomplete query \& incomplete database.}}{7}}
\newlabel{Figure:test5}{{7}{7}}
\@writefile{lof}{\contentsline {figure}{\numberline {8}{\ignorespaces Performance Test Group 6. Top 30 items returned from Robot Google are taken into consideration. Optimal weight coefficients are applied for ranking. Items belong to the same object class are relevant. Tests range from complete query \& complete database to incomplete query \& incomplete database.}}{7}}
\newlabel{Figure:test6}{{8}{7}}
\@writefile{toc}{\contentsline {subsection}{\numberline {V-B}Activity Knowledge}{7}}
\@writefile{lot}{\contentsline {table}{\numberline {II}{\ignorespaces Results for activity recognition experiments.}}{7}}
\newlabel{Table:act_exp}{{II}{7}}
\@writefile{toc}{\contentsline {section}{\numberline {VI}CONCLUSION}{7}}
\bibstyle{IEEEtran}
\bibdata{IEEEabrv,bibliography/bib_file}
\bibcite{Ferber}{1}
\bibcite{Maes}{2}
\bibcite{Subrahmanian}{3}
\bibcite{Weiss}{4}
\bibcite{Wooldridge00}{5}
\bibcite{Knoop2007}{6}
\bibcite{Sowa00}{7}
\bibcite{Roy05b}{8}
\bibcite{Roy05a}{9}
\bibcite{Cohen2000}{10}
\bibcite{Kuipers2001}{11}
\bibcite{Grupen2005}{12}
\bibcite{Hart2005}{13}
\bibcite{Dillmann}{14}
\bibcite{Dillmann2005}{15}
\bibcite{Genesereth}{16}
\bibcite{Davies03}{17}
\bibcite{Castelli2002}{18}
\bibcite{sclaroff99}{19}
\bibcite{deerwester90}{20}
\bibcite{Henderson98b}{21}
\bibcite{Henderson84a}{22}
\bibcite{Fielden2002}{23}
\bibcite{puzicha99}{24}
\bibcite{wiki:precision}{25}
\bibcite{Knoop2006}{26}
\@writefile{toc}{\contentsline {section}{\numberline {VII}ACKNOWLEDGMENTS}{8}}
\@writefile{toc}{\contentsline {section}{References}{8}}
