This is BibTeX, Version 0.99c (Web2C 7.4.5)
The top-level auxiliary file: RobotGoogle.aux
The style file: IEEEtran.bst
Reallocated wiz_functions (elt_size=4) to 6000 items from 3000.
Database file #1: IEEEabrv.bib
Database file #2: bibliography/bib_file.bib
-- IEEEtran.bst version 1.11 (2003/04/02) by Michael Shell.
-- http://www.ctan.org/tex-archive/macros/latex/contrib/supported/IEEEtran/
-- See the "IEEEtran_bst_HOWTO.pdf" manual for usage information.
Warning--missing institution in Dillmann2005

Done.
You've used 26 entries,
            3975 wiz_defined-function locations,
            1293 strings with 17856 characters,
and the built_in function-call counts, 15040 in all, are:
= -- 1133
> -- 335
< -- 83
+ -- 176
- -- 64
* -- 694
:= -- 2374
add.period$ -- 52
call.type$ -- 26
change.case$ -- 18
chr.to.int$ -- 186
cite$ -- 27
duplicate$ -- 1149
empty$ -- 1447
format.name$ -- 81
if$ -- 3447
int.to.chr$ -- 0
int.to.str$ -- 26
missing$ -- 217
newline$ -- 106
num.names$ -- 26
pop$ -- 549
preamble$ -- 1
purify$ -- 0
quote$ -- 2
skip$ -- 1179
stack$ -- 0
substring$ -- 453
swap$ -- 826
text.length$ -- 21
text.prefix$ -- 0
top$ -- 5
type$ -- 0
warning$ -- 1
while$ -- 56
width$ -- 28
write$ -- 252
(There was 1 warning)
