\relax 
\providecommand\hyper@newdestlabel[2]{}
\providecommand\HyperFirstAtBeginDocument{\AtBeginDocument}
\HyperFirstAtBeginDocument{\ifx\hyper@anchor\@undefined
\global\let\oldcontentsline\contentsline
\gdef\contentsline#1#2#3#4{\oldcontentsline{#1}{#2}{#3}}
\global\let\oldnewlabel\newlabel
\gdef\newlabel#1#2{\newlabelxx{#1}#2}
\gdef\newlabelxx#1#2#3#4#5#6{\oldnewlabel{#1}{{#2}{#3}}}
\AtEndDocument{\ifx\hyper@anchor\@undefined
\let\contentsline\oldcontentsline
\let\newlabel\oldnewlabel
\fi}
\fi}
\global\let\hyper@last\relax 
\gdef\HyperFirstAtBeginDocument#1{#1}
\providecommand\HyField@AuxAddToFields[1]{}
\providecommand\HyField@AuxAddToCoFields[2]{}
\@writefile{lof}{\contentsline {figure}{\numberline {1}{\ignorespaces The red lines are bus, the green lines are truck, the blue lines are car.\relax }}{2}{figure.caption.2}}
\providecommand*\caption@xref[2]{\@setref\relax\@undefined{#1}}
\newlabel{fig:ori}{{1}{2}{The red lines are bus, the green lines are truck, the blue lines are car.\relax }{figure.caption.2}{}}
\@writefile{lof}{\contentsline {figure}{\numberline {3}{\ignorespaces The roughly size distribution of the model. Blue represent car, yellow represent truck, and red represent bus.\relax }}{4}{figure.caption.5}}
\newlabel{fig:ori}{{3}{4}{The roughly size distribution of the model. Blue represent car, yellow represent truck, and red represent bus.\relax }{figure.caption.5}{}}
\@writefile{lot}{\contentsline {table}{\numberline {1}{\ignorespaces Training set confusion table. The row represent the data of class, and the col represent the result ratio of that class.\relax }}{4}{table.caption.6}}
\@writefile{lot}{\contentsline {table}{\numberline {2}{\ignorespaces Testing set confusion table. The row represent the data of class, and the col represent the result ratio of that class.\relax }}{4}{table.caption.7}}
\bibstyle{acm}
\bibdata{biblio}
