\relax 
\@writefile{lof}{\contentsline {figure}{\numberline {1}{\ignorespaces Original image.\relax }}{2}}
\providecommand*\caption@xref[2]{\@setref\relax\@undefined{#1}}
\newlabel{fig:ori}{{1}{2}}
\newlabel{fig:tiger}{{2a}{3}}
\newlabel{sub@fig:tiger}{{a}{3}}
\newlabel{fig:mouse}{{2b}{3}}
\newlabel{sub@fig:mouse}{{b}{3}}
\@writefile{lof}{\contentsline {figure}{\numberline {2}{\ignorespaces k=2, k-means results\relax }}{3}}
\newlabel{fig:k2}{{2}{3}}
\newlabel{fig:tiger}{{3a}{4}}
\newlabel{sub@fig:tiger}{{a}{4}}
\newlabel{fig:mouse}{{3b}{4}}
\newlabel{sub@fig:mouse}{{b}{4}}
\@writefile{lof}{\contentsline {figure}{\numberline {3}{\ignorespaces k=7, parts of k-means results\relax }}{4}}
\newlabel{fig:k7}{{3}{4}}
\newlabel{fig:tiger}{{4a}{5}}
\newlabel{sub@fig:tiger}{{a}{5}}
\newlabel{fig:mouse}{{4b}{5}}
\newlabel{sub@fig:mouse}{{b}{5}}
\@writefile{lof}{\contentsline {figure}{\numberline {4}{\ignorespaces k=20, parts of k-means results\relax }}{5}}
\newlabel{fig:k20}{{4}{5}}
\@writefile{lof}{\contentsline {figure}{\numberline {5}{\ignorespaces Result of runing Harris to the image and setting threshold to 10.\relax }}{6}}
\newlabel{fig:track}{{5}{6}}
\newlabel{fig:tiger}{{6a}{8}}
\newlabel{sub@fig:tiger}{{a}{8}}
\newlabel{fig:mouse}{{6b}{8}}
\newlabel{sub@fig:mouse}{{b}{8}}
\@writefile{lof}{\contentsline {figure}{\numberline {6}{\ignorespaces The first figure has two kind of circles. The red ones are the points from the first image, and the green ones are the points from the second image. The expected output of the CS6640\_register() is that transforming the input image from red points to green points. That is to say, the second figure shows the image move a little up-left.\relax }}{8}}
\newlabel{fig:r1}{{6}{8}}
\newlabel{fig:tiger}{{\caption@xref {fig:tiger}{ on input line 129}}{9}}
\newlabel{sub@fig:tiger}{{}{9}}
\newlabel{fig:mouse}{{\caption@xref {fig:mouse}{ on input line 133}}{9}}
\newlabel{sub@fig:mouse}{{}{9}}
\newlabel{fig:mouse}{{\caption@xref {fig:mouse}{ on input line 137}}{9}}
\newlabel{sub@fig:mouse}{{}{9}}
\@writefile{lof}{\contentsline {figure}{\numberline {7}{\ignorespaces The first figure shows larger scale of cps. The second shows result of affine transformation. The third shows the result of quadratic transformation.\relax }}{9}}
\newlabel{fig:r2}{{7}{9}}
\newlabel{fig:tiger}{{\caption@xref {fig:tiger}{ on input line 146}}{10}}
\newlabel{sub@fig:tiger}{{}{10}}
\newlabel{fig:mouse}{{\caption@xref {fig:mouse}{ on input line 150}}{10}}
\newlabel{sub@fig:mouse}{{}{10}}
\newlabel{fig:mouse}{{\caption@xref {fig:mouse}{ on input line 154}}{10}}
\newlabel{sub@fig:mouse}{{}{10}}
\@writefile{lof}{\contentsline {figure}{\numberline {8}{\ignorespaces The first figure shows random cps. The second shows result of affine transformation. The third shows the result of quadratic transformation.\relax }}{10}}
\newlabel{fig:r4}{{8}{10}}
\@writefile{lof}{\contentsline {figure}{\numberline {9}{\ignorespaces The moving car in one of frames of the output M in CS6640\_track.\relax }}{11}}
\newlabel{fig:car}{{9}{11}}
\bibstyle{acm}
\bibdata{biblio}
\@writefile{lof}{\contentsline {figure}{\numberline {10}{\ignorespaces Tracks of the result. Please get closer to see the red line.\relax }}{12}}
\newlabel{fig:track}{{10}{12}}
