This is pdfTeX, Version 3.14159265-2.6-1.40.18 (TeX Live 2017) (preloaded format=pdflatex 2017.5.23)  5 SEP 2018 11:03
entering extended mode
 restricted \write18 enabled.
 %&-line parsing enabled.
**u1141797_A1.tex
(./u1141797_A1.tex
LaTeX2e <2017-04-15>
Babel <3.10> and hyphenation patterns for 84 language(s) loaded.
(/usr/local/texlive/2017/texmf-dist/tex/latex/base/article.cls
Document Class: article 2014/09/29 v1.4h Standard LaTeX document class
(/usr/local/texlive/2017/texmf-dist/tex/latex/base/size10.clo
File: size10.clo 2014/09/29 v1.4h Standard LaTeX file (size option)
)
\c@part=\count79
\c@section=\count80
\c@subsection=\count81
\c@subsubsection=\count82
\c@paragraph=\count83
\c@subparagraph=\count84
\c@figure=\count85
\c@table=\count86
\abovecaptionskip=\skip41
\belowcaptionskip=\skip42
\bibindent=\dimen102
)
(/usr/local/texlive/2017/texmf-dist/tex/latex/tools/enumerate.sty
Package: enumerate 2015/07/23 v3.00 enumerate extensions (DPC)
\@enLab=\toks14
)
(/usr/local/texlive/2017/texmf-dist/tex/latex/enumitem/enumitem.sty
Package: enumitem 2011/09/28 v3.5.2 Customized lists
\enitkv@toks@=\toks15
\labelindent=\skip43
\enit@outerparindent=\dimen103
\enit@toks=\toks16
\enit@inbox=\box26
\enitdp@description=\count87
)
(/usr/local/texlive/2017/texmf-dist/tex/latex/preprint/authblk.sty
Package: authblk 2001/02/27 1.3 (PWD)
\affilsep=\skip44
\@affilsep=\skip45
\c@Maxaffil=\count88
\c@authors=\count89
\c@affil=\count90
)
(/usr/local/texlive/2017/texmf-dist/tex/latex/listings/listings.sty
(/usr/local/texlive/2017/texmf-dist/tex/latex/graphics/keyval.sty
Package: keyval 2014/10/28 v1.15 key=value parser (DPC)
\KV@toks@=\toks17
)
\lst@mode=\count91
\lst@gtempboxa=\box27
\lst@token=\toks18
\lst@length=\count92
\lst@currlwidth=\dimen104
\lst@column=\count93
\lst@pos=\count94
\lst@lostspace=\dimen105
\lst@width=\dimen106
\lst@newlines=\count95
\lst@lineno=\count96
\lst@maxwidth=\dimen107

(/usr/local/texlive/2017/texmf-dist/tex/latex/listings/lstmisc.sty
File: lstmisc.sty 2015/06/04 1.6 (Carsten Heinz)
\c@lstnumber=\count97
\lst@skipnumbers=\count98
\lst@framebox=\box28
)
(/usr/local/texlive/2017/texmf-dist/tex/latex/listings/listings.cfg
File: listings.cfg 2015/06/04 1.6 listings configuration
))
Package: listings 2015/06/04 1.6 (Carsten Heinz)

(/usr/local/texlive/2017/texmf-dist/tex/latex/graphics/graphicx.sty
Package: graphicx 2014/10/28 v1.0g Enhanced LaTeX Graphics (DPC,SPQR)

(/usr/local/texlive/2017/texmf-dist/tex/latex/graphics/graphics.sty
Package: graphics 2017/04/14 v1.1b Standard LaTeX Graphics (DPC,SPQR)

(/usr/local/texlive/2017/texmf-dist/tex/latex/graphics/trig.sty
Package: trig 2016/01/03 v1.10 sin cos tan (DPC)
)
(/usr/local/texlive/2017/texmf-dist/tex/latex/graphics-cfg/graphics.cfg
File: graphics.cfg 2016/06/04 v1.11 sample graphics configuration
)
Package graphics Info: Driver file: pdftex.def on input line 99.

(/usr/local/texlive/2017/texmf-dist/tex/latex/graphics-def/pdftex.def
File: pdftex.def 2017/01/12 v0.06k Graphics/color for pdfTeX

(/usr/local/texlive/2017/texmf-dist/tex/generic/oberdiek/infwarerr.sty
Package: infwarerr 2016/05/16 v1.4 Providing info/warning/error messages (HO)
)
(/usr/local/texlive/2017/texmf-dist/tex/generic/oberdiek/ltxcmds.sty
Package: ltxcmds 2016/05/16 v1.23 LaTeX kernel commands for general use (HO)
)
\Gread@gobject=\count99
))
\Gin@req@height=\dimen108
\Gin@req@width=\dimen109
)
(/usr/local/texlive/2017/texmf-dist/tex/latex/caption/subcaption.sty
Package: subcaption 2016/05/22 v1.1-161 Sub-captions (AR)

(/usr/local/texlive/2017/texmf-dist/tex/latex/caption/caption.sty
Package: caption 2016/02/21 v3.3-144 Customizing captions (AR)

(/usr/local/texlive/2017/texmf-dist/tex/latex/caption/caption3.sty
Package: caption3 2016/05/22 v1.7-166 caption3 kernel (AR)
Package caption3 Info: TeX engine: e-TeX on input line 67.
\captionmargin=\dimen110
\captionmargin@=\dimen111
\captionwidth=\dimen112
\caption@tempdima=\dimen113
\caption@indent=\dimen114
\caption@parindent=\dimen115
\caption@hangindent=\dimen116
)
\c@ContinuedFloat=\count100
Package caption Info: listings package is loaded.
)
\c@subfigure=\count101
\c@subtable=\count102
)
(/usr/local/texlive/2017/texmf-dist/tex/latex/float/float.sty
Package: float 2001/11/08 v1.3d Float enhancements (AL)
\c@float@type=\count103
\float@exts=\toks19
\float@box=\box29
\@float@everytoks=\toks20
\@floatcapt=\box30
)
(./u1141797_A1.aux

LaTeX Warning: Label `fig:gull' multiply defined.


LaTeX Warning: Label `sub@fig:gull' multiply defined.


LaTeX Warning: Label `fig:tiger' multiply defined.


LaTeX Warning: Label `sub@fig:tiger' multiply defined.


LaTeX Warning: Label `fig:gull' multiply defined.


LaTeX Warning: Label `sub@fig:gull' multiply defined.


LaTeX Warning: Label `fig:tiger' multiply defined.


LaTeX Warning: Label `sub@fig:tiger' multiply defined.


LaTeX Warning: Label `fig:gull' multiply defined.


LaTeX Warning: Label `sub@fig:gull' multiply defined.


LaTeX Warning: Label `fig:tiger' multiply defined.


LaTeX Warning: Label `sub@fig:tiger' multiply defined.


LaTeX Warning: Label `fig:mouse' multiply defined.


LaTeX Warning: Label `sub@fig:mouse' multiply defined.


LaTeX Warning: Label `fig:mouse' multiply defined.


LaTeX Warning: Label `sub@fig:mouse' multiply defined.


LaTeX Warning: Label `fig:mouse' multiply defined.


LaTeX Warning: Label `sub@fig:mouse' multiply defined.


LaTeX Warning: Label `fig:mouse' multiply defined.


LaTeX Warning: Label `sub@fig:mouse' multiply defined.


LaTeX Warning: Label `fig:mouse' multiply defined.


LaTeX Warning: Label `sub@fig:mouse' multiply defined.


LaTeX Warning: Label `fig:mouse' multiply defined.


LaTeX Warning: Label `sub@fig:mouse' multiply defined.


LaTeX Warning: Label `fig:mouse' multiply defined.


LaTeX Warning: Label `sub@fig:mouse' multiply defined.


LaTeX Warning: Label `fig:mouse' multiply defined.


LaTeX Warning: Label `sub@fig:mouse' multiply defined.


LaTeX Warning: Label `fig:mouse' multiply defined.


LaTeX Warning: Label `sub@fig:mouse' multiply defined.


LaTeX Warning: Label `fig:mouse' multiply defined.


LaTeX Warning: Label `sub@fig:mouse' multiply defined.


LaTeX Warning: Label `fig:mouse' multiply defined.


LaTeX Warning: Label `sub@fig:mouse' multiply defined.


LaTeX Warning: Label `fig:animals' multiply defined.


LaTeX Warning: Label `fig:gull' multiply defined.


LaTeX Warning: Label `sub@fig:gull' multiply defined.


LaTeX Warning: Label `fig:mouse' multiply defined.


LaTeX Warning: Label `sub@fig:mouse' multiply defined.


LaTeX Warning: Label `fig:mouse' multiply defined.


LaTeX Warning: Label `sub@fig:mouse' multiply defined.


LaTeX Warning: Label `fig:mouse' multiply defined.


LaTeX Warning: Label `sub@fig:mouse' multiply defined.

)
\openout1 = `u1141797_A1.aux'.

LaTeX Font Info:    Checking defaults for OML/cmm/m/it on input line 16.
LaTeX Font Info:    ... okay on input line 16.
LaTeX Font Info:    Checking defaults for T1/cmr/m/n on input line 16.
LaTeX Font Info:    ... okay on input line 16.
LaTeX Font Info:    Checking defaults for OT1/cmr/m/n on input line 16.
LaTeX Font Info:    ... okay on input line 16.
LaTeX Font Info:    Checking defaults for OMS/cmsy/m/n on input line 16.
LaTeX Font Info:    ... okay on input line 16.
LaTeX Font Info:    Checking defaults for OMX/cmex/m/n on input line 16.
LaTeX Font Info:    ... okay on input line 16.
LaTeX Font Info:    Checking defaults for U/cmr/m/n on input line 16.
LaTeX Font Info:    ... okay on input line 16.
\c@lstlisting=\count104
 (/usr/local/texlive/2017/texmf-dist/tex/context/base/mkii/supp-pdf.mkii
[Loading MPS to PDF converter (version 2006.09.02).]
\scratchcounter=\count105
\scratchdimen=\dimen117
\scratchbox=\box31
\nofMPsegments=\count106
\nofMParguments=\count107
\everyMPshowfont=\toks21
\MPscratchCnt=\count108
\MPscratchDim=\dimen118
\MPnumerator=\count109
\makeMPintoPDFobject=\count110
\everyMPtoPDFconversion=\toks22
) (/usr/local/texlive/2017/texmf-dist/tex/generic/oberdiek/pdftexcmds.sty
Package: pdftexcmds 2017/03/19 v0.25 Utility functions of pdfTeX for LuaTeX (HO
)

(/usr/local/texlive/2017/texmf-dist/tex/generic/oberdiek/ifluatex.sty
Package: ifluatex 2016/05/16 v1.4 Provides the ifluatex switch (HO)
Package ifluatex Info: LuaTeX not detected.
)
(/usr/local/texlive/2017/texmf-dist/tex/generic/oberdiek/ifpdf.sty
Package: ifpdf 2017/03/15 v3.2 Provides the ifpdf switch
)
Package pdftexcmds Info: LuaTeX not detected.
Package pdftexcmds Info: \pdf@primitive is available.
Package pdftexcmds Info: \pdf@ifprimitive is available.
Package pdftexcmds Info: \pdfdraftmode found.
)
(/usr/local/texlive/2017/texmf-dist/tex/latex/oberdiek/epstopdf-base.sty
Package: epstopdf-base 2016/05/15 v2.6 Base part for package epstopdf

(/usr/local/texlive/2017/texmf-dist/tex/latex/oberdiek/grfext.sty
Package: grfext 2016/05/16 v1.2 Manage graphics extensions (HO)

(/usr/local/texlive/2017/texmf-dist/tex/generic/oberdiek/kvdefinekeys.sty
Package: kvdefinekeys 2016/05/16 v1.4 Define keys (HO)
))
(/usr/local/texlive/2017/texmf-dist/tex/latex/oberdiek/kvoptions.sty
Package: kvoptions 2016/05/16 v3.12 Key value format for package options (HO)

(/usr/local/texlive/2017/texmf-dist/tex/generic/oberdiek/kvsetkeys.sty
Package: kvsetkeys 2016/05/16 v1.17 Key value parser (HO)

(/usr/local/texlive/2017/texmf-dist/tex/generic/oberdiek/etexcmds.sty
Package: etexcmds 2016/05/16 v1.6 Avoid name clashes with e-TeX commands (HO)
Package etexcmds Info: Could not find \expanded.
(etexcmds)             That can mean that you are not using pdfTeX 1.50 or
(etexcmds)             that some package has redefined \expanded.
(etexcmds)             In the latter case, load this package earlier.
)))
Package epstopdf-base Info: Redefining graphics rule for `.eps' on input line 4
38.
Package grfext Info: Graphics extension search list:
(grfext)             [.png,.pdf,.jpg,.mps,.jpeg,.jbig2,.jb2,.PNG,.PDF,.JPG,.JPE
G,.JBIG2,.JB2,.eps]
(grfext)             \AppendGraphicsExtensions on input line 456.

(/usr/local/texlive/2017/texmf-dist/tex/latex/latexconfig/epstopdf-sys.cfg
File: epstopdf-sys.cfg 2010/07/13 v1.3 Configuration of (r)epstopdf for TeX Liv
e
))
Package caption Info: Begin \AtBeginDocument code.
Package caption Info: float package is loaded.
Package caption Info: End \AtBeginDocument code.

[1

{/usr/local/texlive/2017/texmf-var/fonts/map/pdftex/updmap/pdftex.map}]
<08-22-18_09-20-37-003.jpg, id=10, 642.4pt x 481.8pt>
File: 08-22-18_09-20-37-003.jpg Graphic file (type jpg)

<use 08-22-18_09-20-37-003.jpg>
Package pdftex.def Info: 08-22-18_09-20-37-003.jpg used on input line 56.
(pdftex.def)             Requested size: 345.0pt x 258.75659pt.
 <road.png, id=11, 61.22874pt x 61.22874pt>
File: road.png Graphic file (type png)

<use road.png>
Package pdftex.def Info: road.png used on input line 63.
(pdftex.def)             Requested size: 103.50105pt x 103.50352pt.
LaTeX Font Info:    External font `cmex10' loaded for size
(Font)              <7> on input line 66.
LaTeX Font Info:    External font `cmex10' loaded for size
(Font)              <5> on input line 66.
 <com_road.png, id=12, 642.4pt x 481.8pt>
File: com_road.png Graphic file (type png)
 <use com_road.png>
Package pdftex.def Info: com_road.png used on input line 70.
(pdftex.def)             Requested size: 172.5pt x 129.37462pt.

[2 <./08-22-18_09-20-37-003.jpg>] <line.png, id=16, 21.07875pt x 21.07875pt>
File: line.png Graphic file (type png)

<use line.png>
Package pdftex.def Info: line.png used on input line 79.
(pdftex.def)             Requested size: 103.50105pt x 103.50343pt.
 <combo_line2.png, id=17, 642.4pt x 481.8pt>
File: combo_line2.png Graphic file (type png)

<use combo_line2.png>
Package pdftex.def Info: combo_line2.png used on input line 86.
(pdftex.def)             Requested size: 172.5pt x 129.37462pt.

Underfull \hbox (badness 10000) in paragraph at lines 96--97

 []

(/usr/local/texlive/2017/texmf-dist/tex/latex/listings/lstlang1.sty
File: lstlang1.sty 2015/06/04 1.6 listings language file
) [3 <./road.png (PNG copy)> <./com_road.png (PNG copy)> <./line.png (PNG copy)
> <./combo_line2.png (PNG copy)>] <prewit_montage.png, id=22, 1415.5284pt x 553
.1064pt>
File: prewit_montage.png Graphic file (type png)

<use prewit_montage.png>
Package pdftex.def Info: prewit_montage.png used on input line 117.
(pdftex.def)             Requested size: 345.0pt x 134.80753pt.
 <sobel_montage.png, id=23, 1415.5284pt x 553.1064pt>
File: sobel_montage.png Graphic file (type png)

<use sobel_montage.png>
Package pdftex.def Info: sobel_montage.png used on input line 122.
(pdftex.def)             Requested size: 345.0pt x 134.80753pt.
 <robert_montage.png, id=24, 1415.5284pt x 553.1064pt>
File: robert_montage.png Graphic file (type png)

<use robert_montage.png>
Package pdftex.def Info: robert_montage.png used on input line 128.
(pdftex.def)             Requested size: 345.0pt x 134.80753pt.
 [4 <./prewit_montage.png (PNG copy)> <./sobel_montage.png (PNG copy)>] <cars.p
ng, id=28, 241.90375pt x 121.45375pt>
File: cars.png Graphic file (type png)
 <use cars.png>
Package pdftex.def Info: cars.png used on input line 138.
(pdftex.def)             Requested size: 241.49895pt x 121.25513pt.

<matlab_edge_canny.png, id=29, 241.90375pt x 121.45375pt>
File: matlab_edge_canny.png Graphic file (type png)

<use matlab_edge_canny.png>
Package pdftex.def Info: matlab_edge_canny.png used on input line 145.
(pdftex.def)             Requested size: 241.49895pt x 121.25513pt.

<matlab_edge_log.png, id=30, 241.90375pt x 121.45375pt>
File: matlab_edge_log.png Graphic file (type png)

<use matlab_edge_log.png>
Package pdftex.def Info: matlab_edge_log.png used on input line 152.
(pdftex.def)             Requested size: 241.49895pt x 121.25513pt.
 [5 <./robert_montage.png (PNG copy)>]
<car1.png, id=34, 66.2475pt x 71.26625pt>
File: car1.png Graphic file (type png)
 <use car1.png>
Package pdftex.def Info: car1.png used on input line 169.
(pdftex.def)             Requested size: 103.50105pt x 111.34993pt.

<car2.png, id=35, 71.26625pt x 61.22874pt>
File: car2.png Graphic file (type png)
 <use car2.png>
Package pdftex.def Info: car2.png used on input line 176.
(pdftex.def)             Requested size: 103.50105pt x 88.92325pt.

<car3.png, id=36, 76.285pt x 51.19125pt>
File: car3.png Graphic file (type png)
 <use car3.png>
Package pdftex.def Info: car3.png used on input line 183.
(pdftex.def)             Requested size: 103.50105pt x 69.45747pt.

<car4.png, id=37, 86.3225pt x 61.22874pt>
File: car4.png Graphic file (type png)
 <use car4.png>
Package pdftex.def Info: car4.png used on input line 188.
(pdftex.def)             Requested size: 103.50105pt x 73.4143pt.

<car5.png, id=38, 91.34125pt x 51.19125pt>
File: car5.png Graphic file (type png)
 <use car5.png>
Package pdftex.def Info: car5.png used on input line 193.
(pdftex.def)             Requested size: 103.50105pt x 58.00868pt.

<car6.png, id=39, 81.30376pt x 51.19125pt>
File: car6.png Graphic file (type png)
 <use car6.png>
Package pdftex.def Info: car6.png used on input line 198.
(pdftex.def)             Requested size: 103.50105pt x 65.17227pt.

<car7.png, id=40, 61.22874pt x 41.15375pt>
File: car7.png Graphic file (type png)
 <use car7.png>
Package pdftex.def Info: car7.png used on input line 203.
(pdftex.def)             Requested size: 103.50105pt x 69.56796pt.

<car8.png, id=41, 106.3975pt x 51.19125pt>
File: car8.png Graphic file (type png)
 <use car8.png>
Package pdftex.def Info: car8.png used on input line 208.
(pdftex.def)             Requested size: 103.50105pt x 49.80072pt.

<car9.png, id=42, 56.21pt x 31.11626pt>
File: car9.png Graphic file (type png)
 <use car9.png>
Package pdftex.def Info: car9.png used on input line 213.
(pdftex.def)             Requested size: 103.50105pt x 57.30205pt.

<bus.png, id=43, 141.52875pt x 71.26625pt>
File: bus.png Graphic file (type png)
 <use bus.png>
Package pdftex.def Info: bus.png used on input line 218.
(pdftex.def)             Requested size: 103.50105pt x 52.11852pt.

<people.png, id=44, 31.11626pt x 31.11626pt>
File: people.png Graphic file (type png)
 <use people.png>
Package pdftex.def Info: people.png used on input line 223.
(pdftex.def)             Requested size: 103.50105pt x 103.52335pt.

<tree1.png, id=45, 76.285pt x 61.22874pt>
File: tree1.png Graphic file (type png)
 <use tree1.png>
Package pdftex.def Info: tree1.png used on input line 228.
(pdftex.def)             Requested size: 103.50105pt x 83.07657pt.

<tree2.png, id=46, 51.19125pt x 66.2475pt>
File: tree2.png Graphic file (type png)
 <use tree2.png>
Package pdftex.def Info: tree2.png used on input line 233.
(pdftex.def)             Requested size: 103.50105pt x 133.9513pt.
 [6 <./cars.png (PNG copy)> <./matlab_edge_canny.png (PNG copy)> <./matlab_edge
_log.png (PNG copy)>]
Overfull \vbox (52.80684pt too high) has occurred while \output is active []


[7 <./car1.png (PNG copy)> <./car2.png (PNG copy)> <./car3.png (PNG copy)> <./c
ar4.png (PNG copy)> <./car5.png (PNG copy)> <./car6.png (PNG copy)> <./car7.png
 (PNG copy)> <./car8.png (PNG copy)> <./car9.png (PNG copy)> <./bus.png (PNG co
py)> <./people.png (PNG copy)> <./tree1.png (PNG copy)> <./tree2.png (PNG copy)
>] <carsfourier.png, id=54, 476.982pt x 422.5386pt>
File: carsfourier.png Graphic file (type png)
 <use carsfourier.png>
Package pdftex.def Info: carsfourier.png used on input line 243.
(pdftex.def)             Requested size: 345.0pt x 305.62665pt.

<cars1349_fourier.png, id=55, 789.1884pt x 609.477pt>
File: cars1349_fourier.png Graphic file (type png)

<use cars1349_fourier.png>
Package pdftex.def Info: cars1349_fourier.png used on input line 249.
(pdftex.def)             Requested size: 345.0pt x 266.44093pt.
 [8 <./carsfourier.png (PNG copy)>]
<others_fourier.png, id=59, 789.1884pt x 609.477pt>
File: others_fourier.png Graphic file (type png)
 <use others_fourier.png>
Package pdftex.def Info: others_fourier.png used on input line 255.
(pdftex.def)             Requested size: 345.0pt x 266.44093pt.

[9 <./cars1349_fourier.png (PNG copy)>] <hsv.png, id=63, 642.4pt x 481.8pt>
File: hsv.png Graphic file (type png)

<use hsv.png>
Package pdftex.def Info: hsv.png used on input line 267.
(pdftex.def)             Requested size: 345.0pt x 258.75659pt.
 [10 <./others_fourier.png (PNG copy)>]
<sobel_montage2.png, id=67, 1415.5284pt x 553.1064pt>
File: sobel_montage2.png Graphic file (type png)
 <use sobel_montage2.png>
Package pdftex.def Info: sobel_montage2.png used on input line 273.
(pdftex.def)             Requested size: 345.0pt x 134.80753pt.

<hcar1.png, id=68, 66.2475pt x 71.26625pt>
File: hcar1.png Graphic file (type png)
 <use hcar1.png>
Package pdftex.def Info: hcar1.png used on input line 279.
(pdftex.def)             Requested size: 103.50105pt x 111.34993pt.

<hcar3.png, id=69, 76.285pt x 51.19125pt>
File: hcar3.png Graphic file (type png)
 <use hcar3.png>
Package pdftex.def Info: hcar3.png used on input line 286.
(pdftex.def)             Requested size: 103.50105pt x 69.45747pt.

<hcar4.png, id=70, 86.3225pt x 61.22874pt>
File: hcar4.png Graphic file (type png)
 <use hcar4.png>
Package pdftex.def Info: hcar4.png used on input line 291.
(pdftex.def)             Requested size: 103.50105pt x 73.4143pt.

<hcar9.png, id=71, 56.21pt x 31.11626pt>
File: hcar9.png Graphic file (type png)
 <use hcar9.png>
Package pdftex.def Info: hcar9.png used on input line 296.
(pdftex.def)             Requested size: 103.50105pt x 57.30205pt.
 [11 <./hsv.png (PNG copy)> <./sobel_montage2.png (PNG copy)>]
<hsvfor.png, id=75, 562.2606pt x 421.575pt>
File: hsvfor.png Graphic file (type png)
 <use hsvfor.png>
Package pdftex.def Info: hsvfor.png used on input line 305.
(pdftex.def)             Requested size: 345.0pt x 258.67848pt.

No file u1141797_A1.bbl.
[12 <./hcar1.png (PNG copy)> <./hcar3.png (PNG copy)> <./hcar4.png (PNG copy)> 
<./hcar9.png (PNG copy)> <./hsvfor.png (PNG copy)>] (./u1141797_A1.aux)

LaTeX Warning: There were multiply-defined labels.

 ) 
Here is how much of TeX's memory you used:
 4995 strings out of 492995
 75558 string characters out of 6132704
 158873 words of memory out of 5000000
 8489 multiletter control sequences out of 15000+600000
 4844 words of font info for 18 fonts, out of 8000000 for 9000
 1141 hyphenation exceptions out of 8191
 42i,7n,42p,471b,2128s stack positions out of 5000i,500n,10000p,200000b,80000s
</usr/local/texlive/2017/texmf-dist/fonts/type1/public/amsfonts/cm/cmbx10.pfb
></usr/local/texlive/2017/texmf-dist/fonts/type1/public/amsfonts/cm/cmr10.pfb><
/usr/local/texlive/2017/texmf-dist/fonts/type1/public/amsfonts/cm/cmr12.pfb></u
sr/local/texlive/2017/texmf-dist/fonts/type1/public/amsfonts/cm/cmr17.pfb></usr
/local/texlive/2017/texmf-dist/fonts/type1/public/amsfonts/cm/cmr9.pfb>
Output written on u1141797_A1.pdf (12 pages, 4015888 bytes).
PDF statistics:
 97 PDF objects out of 1000 (max. 8388607)
 43 compressed objects within 1 object stream
 0 named destinations out of 1000 (max. 500000)
 171 words of extra memory for PDF output out of 10000 (max. 10000000)

