\relax 
\@writefile{lof}{\contentsline {figure}{\numberline {1}{\ignorespaces the frame I pick for the rest of questions\relax }}{2}}
\@writefile{lof}{\contentsline {figure}{\numberline {2}{\ignorespaces for Question 4\relax }}{3}}
\providecommand*\caption@xref[2]{\@setref\relax\@undefined{#1}}
\newlabel{fig:gull}{{2a}{3}}
\newlabel{sub@fig:gull}{{a}{3}}
\newlabel{fig:tiger}{{2b}{3}}
\newlabel{sub@fig:tiger}{{b}{3}}
\newlabel{fig:gull}{{3a}{3}}
\newlabel{sub@fig:gull}{{a}{3}}
\newlabel{fig:tiger}{{3b}{3}}
\newlabel{sub@fig:tiger}{{b}{3}}
\@writefile{lol}{\contentsline {lstlisting}{\numberline {1}question 5 differential operators}{3}}
\@writefile{lof}{\contentsline {figure}{\numberline {4}{\ignorespaces differential operator result using prewit filter as Dx\relax }}{4}}
\@writefile{lof}{\contentsline {figure}{\numberline {5}{\ignorespaces differential operator result using sobel filter as Dx\relax }}{4}}
\@writefile{lof}{\contentsline {figure}{\numberline {6}{\ignorespaces differential operator result using robert filter as Dx\relax }}{5}}
\newlabel{fig:gull}{{7a}{6}}
\newlabel{sub@fig:gull}{{a}{6}}
\newlabel{fig:tiger}{{7b}{6}}
\newlabel{sub@fig:tiger}{{b}{6}}
\newlabel{fig:mouse}{{7c}{6}}
\newlabel{sub@fig:mouse}{{c}{6}}
\@writefile{lof}{\contentsline {figure}{\numberline {7}{\ignorespaces Images use in question 5\relax }}{6}}
\newlabel{fig:animals}{{7}{6}}
\newlabel{fig:gull}{{8a}{7}}
\newlabel{sub@fig:gull}{{a}{7}}
\newlabel{fig:tiger}{{8b}{7}}
\newlabel{sub@fig:tiger}{{b}{7}}
\newlabel{fig:mouse}{{8c}{7}}
\newlabel{sub@fig:mouse}{{c}{7}}
\newlabel{fig:mouse}{{8d}{7}}
\newlabel{sub@fig:mouse}{{d}{7}}
\newlabel{fig:mouse}{{8e}{7}}
\newlabel{sub@fig:mouse}{{e}{7}}
\newlabel{fig:mouse}{{8f}{7}}
\newlabel{sub@fig:mouse}{{f}{7}}
\newlabel{fig:mouse}{{8g}{7}}
\newlabel{sub@fig:mouse}{{g}{7}}
\newlabel{fig:mouse}{{8h}{7}}
\newlabel{sub@fig:mouse}{{h}{7}}
\newlabel{fig:mouse}{{8i}{7}}
\newlabel{sub@fig:mouse}{{i}{7}}
\newlabel{fig:mouse}{{8j}{7}}
\newlabel{sub@fig:mouse}{{j}{7}}
\newlabel{fig:mouse}{{8k}{7}}
\newlabel{sub@fig:mouse}{{k}{7}}
\newlabel{fig:mouse}{{8l}{7}}
\newlabel{sub@fig:mouse}{{l}{7}}
\newlabel{fig:mouse}{{8m}{7}}
\newlabel{sub@fig:mouse}{{m}{7}}
\@writefile{lof}{\contentsline {figure}{\numberline {8}{\ignorespaces Images use in question 6\relax }}{7}}
\newlabel{fig:animals}{{8}{7}}
\@writefile{lof}{\contentsline {figure}{\numberline {9}{\ignorespaces Result of all cars\relax }}{8}}
\@writefile{lof}{\contentsline {figure}{\numberline {10}{\ignorespaces Result of cars 1, 3, 4, 9\relax }}{9}}
\@writefile{lof}{\contentsline {figure}{\numberline {11}{\ignorespaces Result of cars 1 and other objects\relax }}{10}}
\@writefile{lof}{\contentsline {figure}{\numberline {12}{\ignorespaces hsv\relax }}{11}}
\@writefile{lof}{\contentsline {figure}{\numberline {13}{\ignorespaces using differential on hsv image\relax }}{11}}
\bibstyle{acm}
\bibdata{biblio}
\newlabel{fig:gull}{{14a}{12}}
\newlabel{sub@fig:gull}{{a}{12}}
\newlabel{fig:mouse}{{14b}{12}}
\newlabel{sub@fig:mouse}{{b}{12}}
\newlabel{fig:mouse}{{14c}{12}}
\newlabel{sub@fig:mouse}{{c}{12}}
\newlabel{fig:mouse}{{14d}{12}}
\newlabel{sub@fig:mouse}{{d}{12}}
\@writefile{lof}{\contentsline {figure}{\numberline {15}{\ignorespaces using Fourier tranform on hsv image\relax }}{12}}
