\relax 
\providecommand\hyper@newdestlabel[2]{}
\providecommand\HyperFirstAtBeginDocument{\AtBeginDocument}
\HyperFirstAtBeginDocument{\ifx\hyper@anchor\@undefined
\global\let\oldcontentsline\contentsline
\gdef\contentsline#1#2#3#4{\oldcontentsline{#1}{#2}{#3}}
\global\let\oldnewlabel\newlabel
\gdef\newlabel#1#2{\newlabelxx{#1}#2}
\gdef\newlabelxx#1#2#3#4#5#6{\oldnewlabel{#1}{{#2}{#3}}}
\AtEndDocument{\ifx\hyper@anchor\@undefined
\let\contentsline\oldcontentsline
\let\newlabel\oldnewlabel
\fi}
\fi}
\global\let\hyper@last\relax 
\gdef\HyperFirstAtBeginDocument#1{#1}
\providecommand\HyField@AuxAddToFields[1]{}
\providecommand\HyField@AuxAddToCoFields[2]{}
\@writefile{lof}{\contentsline {figure}{\numberline {2}{\ignorespaces It only take 6 epoch to finish training.\relax }}{1}{figure.caption.2}}
\@writefile{lof}{\contentsline {figure}{\numberline {3}{\ignorespaces \relax }}{2}{figure.caption.3}}
\@writefile{lot}{\contentsline {table}{\numberline {1}{\ignorespaces Accuracies on training set. Using the model learned only by size as the feature.\relax }}{2}{table.caption.4}}
\@writefile{lot}{\contentsline {table}{\numberline {2}{\ignorespaces Accuracies on testing set. Using the model learned only by size as the feature.\relax }}{3}{table.caption.5}}
\@writefile{lof}{\contentsline {figure}{\numberline {4}{\ignorespaces Feature of adjusted area(yellow) and the predict result from model(blue).\relax }}{3}{figure.caption.6}}
\@writefile{lof}{\contentsline {figure}{\numberline {5}{\ignorespaces The training converge around 86 epochs.\relax }}{4}{figure.caption.7}}
\@writefile{lot}{\contentsline {table}{\numberline {3}{\ignorespaces Accuracies on training set. Using the model learned from 5 features.\relax }}{4}{table.caption.8}}
\@writefile{lot}{\contentsline {table}{\numberline {4}{\ignorespaces Accuracies on testing set. Using the model learned from 5 features.\relax }}{4}{table.caption.9}}
\@writefile{lof}{\contentsline {figure}{\numberline {6}{\ignorespaces Backpack $\rightarrow $ Backpack\relax }}{5}{figure.caption.10}}
\@writefile{lof}{\contentsline {figure}{\numberline {7}{\ignorespaces Shoe $\rightarrow $ Potter's wheel\relax }}{5}{figure.caption.11}}
\@writefile{lof}{\contentsline {figure}{\numberline {8}{\ignorespaces Water bottle $\rightarrow $ Water bottle\relax }}{6}{figure.caption.12}}
\@writefile{lof}{\contentsline {figure}{\numberline {9}{\ignorespaces Hand $\rightarrow $ Pinwheel\relax }}{6}{figure.caption.13}}
\@writefile{lof}{\contentsline {figure}{\numberline {10}{\ignorespaces A corner of a room $\rightarrow $ Microwave\relax }}{7}{figure.caption.14}}
\@writefile{lof}{\contentsline {figure}{\numberline {11}{\ignorespaces Headset $\rightarrow $ Brassiere\relax }}{7}{figure.caption.15}}
\bibstyle{acm}
\bibdata{biblio}
\@writefile{lof}{\contentsline {figure}{\numberline {12}{\ignorespaces Marker $\rightarrow $ Lipstick\relax }}{8}{figure.caption.16}}
\@writefile{lof}{\contentsline {figure}{\numberline {13}{\ignorespaces A Matlab lover in a classroom $\rightarrow $ Entertainment Center\relax }}{8}{figure.caption.17}}
