\relax 
\@writefile{lof}{\contentsline {figure}{\numberline {1}{\ignorespaces Original image.\relax }}{1}}
\providecommand*\caption@xref[2]{\@setref\relax\@undefined{#1}}
\newlabel{fig:ori}{{1}{1}}
\@writefile{lof}{\contentsline {figure}{\numberline {2}{\ignorespaces Using k=4 kmean, on result from CS6640\_FFT\_texture.\relax }}{2}}
\@writefile{lof}{\contentsline {figure}{\numberline {3}{\ignorespaces Using k=4 kmean, on result from CS6640\_FFT\_radial.\relax }}{3}}
\@writefile{lof}{\contentsline {figure}{\numberline {4}{\ignorespaces Using k=4 kmean, on result from CS6640\_FFT\_angular with $19*19$ feature vector. The result is very close to the result from CS6640\_FFT\_texture.\relax }}{4}}
\@writefile{lof}{\contentsline {figure}{\numberline {5}{\ignorespaces \relax }}{5}}
\@writefile{lof}{\contentsline {figure}{\numberline {6}{\ignorespaces Use H shape, w=1. The rotation ones are different.\relax }}{6}}
\newlabel{fig:ori}{{6}{6}}
\@writefile{lof}{\contentsline {figure}{\numberline {7}{\ignorespaces Use H shape, w=2. All same.\relax }}{6}}
\newlabel{fig:ori}{{7}{6}}
\@writefile{lof}{\contentsline {figure}{\numberline {8}{\ignorespaces Use H shape, w=5. All same.\relax }}{7}}
\newlabel{fig:ori}{{8}{7}}
\@writefile{lof}{\contentsline {figure}{\numberline {9}{\ignorespaces Use O shape, w=1. All same.\relax }}{7}}
\newlabel{fig:ori}{{9}{7}}
\bibstyle{acm}
\bibdata{biblio}
\@writefile{lof}{\contentsline {figure}{\numberline {10}{\ignorespaces Use O shape, w=2. The rotation ones are different.\relax }}{8}}
\newlabel{fig:ori}{{10}{8}}
\@writefile{lof}{\contentsline {figure}{\numberline {11}{\ignorespaces Use O shape, w=5. All same.\relax }}{8}}
\newlabel{fig:ori}{{11}{8}}
